<svg width="24" height="24" viewBox="0 0 24 24" fill="none" xmlns="http://www.w3.org/2000/svg">
<path d="M9 21C9.55228 21 10 20.5523 10 20C10 19.4477 9.55228 19 9 19C8.44772 19 8 19.4477 8 20C8 20.5523 8.44772 21 9 21Z" stroke="#151515" stroke-width="2" stroke-linecap="round" stroke-linejoin="round"/>
<path d="M19 21C19.5523 21 20 20.5523 20 20C20 19.4477 19.5523 19 19 19C18.4477 19 18 19.4477 18 20C18 20.5523 18.4477 21 19 21Z" stroke="#151515" stroke-width="2" stroke-linecap="round" stroke-linejoin="round"/>
<path d="M2 3H5.63636L8.07273 14.497C8.15586 14.9267 8.38355 15.3127 8.71595 15.5874C9.04835 15.8621 9.46427 16.0081 9.89091 15.9997H18.7273C19.1539 16.0081 19.5698 15.8621 19.9022 15.5874C20.2346 15.3127 20.4623 14.9267 20.5455 14.497L22 8H6.69593" stroke="#151515" stroke-width="2" stroke-linecap="round" stroke-linejoin="round"/>
</svg>
