<svg width="24" height="24" viewBox="0 0 24 24" fill="none" xmlns="http://www.w3.org/2000/svg">
<path d="M17.4193 10.6451V10.9167C17.4193 11.2496 17.473 11.5803 17.5782 11.896L18.1935 13.7419H19.3548V9.48376H18.5806C17.9392 9.48381 17.4193 10.0037 17.4193 10.6451Z" fill="#5A4146"/>
<path d="M22.7196 11.4493L22.0646 13.7419L18.9678 11.0323C18.5402 11.0323 18.1936 10.6856 18.1936 10.2581C18.1936 9.61674 18.7135 9.0968 19.3549 9.0968H22.0645C22.4921 9.0968 22.8387 9.44344 22.8387 9.87099V10.5986C22.8388 10.8863 22.7987 11.1726 22.7196 11.4493Z" fill="#694B4B"/>
<path d="M21.2901 14.9034H18.9675V16.6167H21.2901V14.9034Z" fill="#E6AF78"/>
<path d="M18.9678 15.6142C19.3268 15.7601 19.7183 15.8422 20.1291 15.8422C20.5398 15.8422 20.9313 15.7601 21.2903 15.6142V14.9032H18.9678V15.6142Z" fill="#D29B6E"/>
<path d="M23.1577 16.3757L21.2902 15.8422L20.129 16.6128L18.9677 15.8422L17.1003 16.3757C16.6017 16.5182 16.2581 16.9739 16.2581 17.4924V20.3225C16.2581 20.5363 16.4314 20.7096 16.6452 20.7096H23.6129C23.8267 20.7096 24 20.5363 24 20.3225V17.4924C24 16.9738 23.6562 16.5182 23.1577 16.3757Z" fill="#D5DCED"/>
<path d="M20.5161 20.7096H19.7419L19.9355 16.6165H20.3226L20.5161 20.7096Z" fill="#AFB9D2"/>
<path d="M20.1291 15.2903C18.8463 15.2903 17.8065 14.2504 17.8065 12.9678V12.5142C17.8065 12.3089 17.8881 12.112 18.0333 11.9668L18.7352 11.2648C18.8838 11.1162 19.0871 11.0307 19.2972 11.0373C20.5346 11.0764 21.6299 11.3415 22.2286 11.9262C22.3752 12.0694 22.4517 12.2696 22.4517 12.4745V12.9678C22.4517 14.2505 21.4118 15.2903 20.1291 15.2903Z" fill="#F0C087"/>
<path d="M18.9678 12.6103C18.9678 12.1638 19.3428 11.8088 19.7884 11.8372C20.5699 11.8871 21.7295 12.0177 22.4409 12.3599C22.4177 12.1966 22.3475 12.0424 22.2286 11.9262C21.6299 11.3415 20.5346 11.0764 19.2972 11.0373L19.2971 11.0374V11.0373C19.0871 11.0307 18.8838 11.1162 18.7352 11.2648L18.0333 11.9667C17.8881 12.1119 17.8065 12.3088 17.8065 12.5142V12.9677C17.8065 14.0269 18.5163 14.9187 19.4856 15.198C19.1629 14.7999 18.9678 14.2946 18.9678 13.7419L18.9678 12.6103Z" fill="#E6AF78"/>
<path d="M22.4517 18.6458C22.4517 18.3378 22.574 18.0424 22.7918 17.8247L23.7882 16.8282C23.9214 17.0186 24 17.2478 24 17.4924V20.3225C24 20.5363 23.8267 20.7096 23.6129 20.7096H22.4517V18.6458Z" fill="#C7CFE2"/>
<path d="M20.3226 17.3906H19.9355C19.8286 17.3906 19.7419 17.304 19.7419 17.1971V16.6165H20.5161V17.1971C20.5161 17.304 20.4295 17.3906 20.3226 17.3906Z" fill="#959CB5"/>
<path d="M20.1291 16.6128L19.473 17.114C19.3599 17.2003 19.1965 17.1657 19.1282 17.041L18.5397 15.9661L18.7766 15.6048C18.8291 15.5246 18.9411 15.511 19.0114 15.5761L20.1291 16.6128Z" fill="#C7CFE2"/>
<path d="M20.129 16.6129L20.7851 17.1141C20.8982 17.2005 21.0616 17.1659 21.1299 17.0411L21.7184 15.9662L21.4815 15.6049C21.429 15.5247 21.317 15.5111 21.2467 15.5762L20.129 16.6129Z" fill="#C7CFE2"/>
<path d="M6.92923 15.1286C6.59844 14.2522 6.33608 12.7455 6.27941 11.961C6.17159 10.4682 5.04664 9.25134 3.52592 9.25134C2.0052 9.25134 0.880249 10.4683 0.772437 11.961C0.715765 12.7454 0.453406 14.2522 0.122609 15.1286C0.049718 15.3218 0.133859 15.5349 0.324124 15.6211C0.678593 15.7818 1.43436 16.0965 2.34584 16.2191H4.70595C5.61317 16.0962 6.37423 15.7813 6.72767 15.6211C6.91798 15.5349 7.00212 15.3218 6.92923 15.1286Z" fill="#5A4146"/>
<path d="M6.72758 15.6212C6.9178 15.535 7.00199 15.322 6.92905 15.1287C6.5983 14.2523 6.33589 12.7456 6.27927 11.9611C6.1715 10.4683 5.0465 9.25146 3.52583 9.25146C3.52199 9.25146 3.51819 9.25147 3.51435 9.25151C2.34749 9.25625 1.93513 10.8476 2.93961 11.4414C2.99994 11.477 3.03861 11.4942 3.03861 11.4942L3.91841 16.2192H4.70586C5.61308 16.0962 6.37414 15.7814 6.72758 15.6212Z" fill="#694B4B"/>
<path d="M6.32578 16.9964L5.07309 16.3701C4.81078 16.2389 4.64508 15.9708 4.64512 15.6776L4.64522 14.5162H2.32256V15.6776C2.32256 15.9709 2.15691 16.2389 1.89459 16.37L0.641906 16.9964C0.248484 17.1931 0 17.5952 0 18.035V20.3226C0 20.5363 0.173297 20.7097 0.387094 20.7097H6.58064C6.79444 20.7097 6.96773 20.5363 6.96773 20.3226V18.035C6.96773 17.5952 6.7192 17.1931 6.32578 16.9964Z" fill="#E6AF78"/>
<path d="M3.48387 16.0645C3.90068 16.0645 4.29991 15.9786 4.66591 15.8256C4.6563 15.7768 4.6451 15.7283 4.6451 15.6774L4.64519 14.5161H2.32254V15.6775C2.32254 15.7286 2.31134 15.7774 2.30164 15.8264C2.66787 15.9785 3.06692 16.0645 3.48387 16.0645Z" fill="#D29B6E"/>
<path d="M6.32578 16.9963L5.43338 16.5501C5.01956 17.1891 4.30186 17.6129 3.48389 17.6129C2.66592 17.6129 1.94817 17.1891 1.53436 16.55L0.641953 16.9963C0.248531 17.193 0 17.5951 0 18.0349V20.3225C0 20.5363 0.173297 20.7096 0.387094 20.7096H6.58064C6.79444 20.7096 6.96773 20.5363 6.96773 20.3225V18.035C6.96773 17.5951 6.7192 17.193 6.32578 16.9963Z" fill="#D5DCED"/>
<path d="M3.48386 15.2904C2.30298 15.2904 1.32798 14.4091 1.18056 13.2684C1.15919 13.1031 1.23864 12.9411 1.38742 12.8661C1.56564 12.7761 1.82462 12.6245 2.07259 12.4033C2.34873 12.1569 2.51073 11.8971 2.60223 11.7064C2.68103 11.5421 2.86215 11.4492 3.03869 11.4943C4.40162 11.8419 5.32951 12.551 5.66617 12.8405C5.75655 12.9182 5.80862 13.0328 5.79934 13.1517C5.70555 14.3484 4.70472 15.2904 3.48386 15.2904Z" fill="#F0C087"/>
<path d="M5.66623 12.8403C5.32962 12.5508 4.40169 11.8418 3.03875 11.4941C2.86222 11.4491 2.68109 11.542 2.6023 11.7062C2.53301 11.8507 2.4185 12.0347 2.24858 12.2226C2.24853 12.2231 2.24839 12.2235 2.24834 12.2239C2.19561 12.2837 2.13945 12.3436 2.0727 12.4032C1.82473 12.6245 1.56575 12.7761 1.38753 12.866C1.23875 12.941 1.15934 13.1031 1.18067 13.2684C1.31309 14.2929 2.11475 15.1083 3.13184 15.2638C2.66839 14.9485 2.32269 14.5149 2.32269 13.742V13.19C2.41062 13.1251 2.49917 13.0603 2.58814 12.9809C2.8033 12.7889 2.99112 12.5669 3.14173 12.3278C4.18437 12.6532 4.89125 13.1951 5.15923 13.4255C5.23259 13.4898 5.41466 13.6576 5.62766 13.8575C5.7193 13.6369 5.77991 13.4003 5.79936 13.1516C5.80869 13.0327 5.75661 12.9181 5.66623 12.8403Z" fill="#E6AF78"/>
<path d="M0.235969 17.3372C0.0868594 17.5351 0 17.7778 0 18.0349V20.3225C0 20.5363 0.173297 20.7096 0.387094 20.7096H1.54838V18.7592C1.54838 18.524 1.44145 18.3015 1.2578 18.1546L0.235969 17.3372Z" fill="#C7CFE2"/>
<path d="M17.5615 16.4679L14.3226 15.2902L12.0001 16.0644L9.67751 15.2902L6.43868 16.468C5.82678 16.6905 5.41943 17.272 5.41943 17.9231V20.3225C5.41943 20.5362 5.59273 20.7096 5.80653 20.7096H18.1936C18.4074 20.7096 18.5807 20.5362 18.5807 20.3225V17.9231C18.5807 17.272 18.1734 16.6905 17.5615 16.4679Z" fill="#FF507D"/>
<path d="M11.5945 16.8386L11.2258 20.7095H12.7742L12.4055 16.8386H11.5945Z" fill="#707487"/>
<path d="M12.4064 17.3705H11.5936C11.4439 17.3705 11.3226 17.2492 11.3226 17.0995V16.0645H12.6774V17.0995C12.6774 17.2491 12.5561 17.3705 12.4064 17.3705Z" fill="#5B5D6E"/>
<path d="M18.1639 16.8683C18.4253 17.1488 18.5806 17.5225 18.5806 17.9233V20.3226C18.5806 20.5364 18.4073 20.7097 18.1935 20.7097H16.2581V19.4156C16.2581 19.0049 16.4212 18.6111 16.7116 18.3207L18.1639 16.8683Z" fill="#D23C69"/>
<path d="M16.2581 7.30728V4.06447C16.2581 3.63688 15.9115 3.29028 15.4839 3.29028H10.8387C9.12846 3.29028 7.74194 4.67675 7.74194 6.38708V7.30728C7.74194 7.72335 7.80902 8.13669 7.9406 8.53138L8.06946 8.91795C8.10893 9.03636 8.12904 9.16035 8.12904 9.28517V9.48383H15.871V9.28517C15.871 9.16035 15.8911 9.03636 15.9306 8.91795L16.0594 8.53138C16.191 8.13664 16.2581 7.7233 16.2581 7.30728Z" fill="#5A4146"/>
<path d="M9.67737 4.86285C9.67737 5.73135 10.3814 6.43541 11.2499 6.43541H11.4677L11.5728 9.48378H15.8709V9.28513C15.8709 9.1603 15.891 9.03631 15.9304 8.91791L16.0593 8.53133C16.1909 8.13664 16.258 7.7233 16.258 7.30724V4.06447C16.258 3.63688 15.9113 3.29028 15.4838 3.29028H11.2499C10.3814 3.29028 9.67737 3.99435 9.67737 4.86285Z" fill="#694B4B"/>
<path d="M14.3227 12.5808H9.67737V16.0646H14.3227V12.5808Z" fill="#E6AF78"/>
<path d="M9.67741 13.8895C10.3612 14.2856 11.1529 14.516 12 14.516C12.8471 14.516 13.6388 14.2856 14.3226 13.8895V12.5806H9.67737L9.67741 13.8895Z" fill="#D29B6E"/>
<path d="M11.9999 16.0645L10.7654 17.2991C10.5994 17.465 10.3252 17.4463 10.1833 17.2594L8.9032 15.5726L9.23803 14.867C9.33684 14.6588 9.59456 14.5825 9.79078 14.7034L11.9999 16.0645Z" fill="#D23C69"/>
<path d="M12 16.0645L13.2346 17.2991C13.4005 17.465 13.6748 17.4463 13.8166 17.2594L15.0968 15.5726L14.7619 14.867C14.6631 14.6588 14.4054 14.5825 14.2092 14.7034L12 16.0645Z" fill="#D23C69"/>
<path d="M12 13.742C9.86214 13.742 8.12903 12.0089 8.12903 9.87099V9.41747C8.12903 9.21216 8.21059 9.01524 8.35576 8.87002L8.67643 8.54935C8.82161 8.40418 8.90317 8.20725 8.90317 8.00189V7.07396C8.90317 6.89471 9.02354 6.73899 9.19797 6.69779C10.1135 6.48155 12.9624 5.96935 14.9012 7.39529C15.0271 7.48786 15.0967 7.63997 15.0967 7.79625V8.00189C15.0967 8.20721 15.1783 8.40413 15.3234 8.54935L15.6441 8.87002C15.7893 9.01519 15.8709 9.21211 15.8709 9.41747V9.87099C15.871 12.0089 14.1379 13.742 12 13.742Z" fill="#F0C087"/>
<path d="M14.9012 7.39525C13.5377 6.39236 11.7264 6.34895 10.4516 6.48625C9.91393 6.54414 9.46965 6.63362 9.19806 6.69775C9.02364 6.73895 8.90326 6.89467 8.90326 7.07392V8.00181C8.90326 8.20717 8.8217 8.40409 8.67648 8.54931L8.35581 8.86998C8.21059 9.0152 8.12903 9.21212 8.12903 9.41748V9.87095C8.12903 11.8502 9.61543 13.4796 11.5322 13.7109C10.8643 13.0154 10.4516 12.0728 10.4516 11.0322V8.20281C10.4516 7.81051 10.7433 7.48267 11.1325 7.43387C12.0615 7.31739 13.7629 7.24736 15.0967 8.0019V7.79622C15.0968 7.63994 15.0271 7.48778 14.9012 7.39525Z" fill="#E6AF78"/>
<path d="M5.8361 16.8683C5.57473 17.1488 5.41943 17.5225 5.41943 17.9233V20.3226C5.41943 20.5364 5.59273 20.7097 5.80653 20.7097H7.74199V19.4156C7.74199 19.0049 7.57886 18.6111 7.28847 18.3207L5.8361 16.8683Z" fill="#D23C69"/>
</svg>
